Untidy Spreadsheet Data • untidydata2
…
The merged cells are coming back with names of “…2”, “…4”, etc. We can remove them from the list with stringr::str_subset and a regular expressing that matches “…” at the beginning of a string.

locations <- read_excel(file_name, sheet = "2016", n_max = 0) %>%
  names() %>%
  str_subset("^\\.{3}", negate = TRUE)

locations

## [1] "Noblesville" "Bloomington" "Muncie"      "South Bend"

Now we have a character vector of locations for the 2016 sheet. Let’s read the rest of the data from the 2016 sheet, skipping the first row this time.

read_excel(file_name, sheet = "2016", skip = 1)

## # A tibble: 53 x 10
##    month   day price...3 quantity...4 price...5 quantity...6 price...7
##    <dbl> <dbl>     <dbl>        <dbl>     <dbl>        <dbl>     <dbl>
##  1     1     1      18.5        2764.      18.5        2631.      18.5
##  2     1     8      11.5        2751.      11.5        2788.      11.5
##  3     1    15      14.8        2612.      14.8        2989.      14.8
##  4     1    22      13.7        2723.      13.7        2827.      13.7
##  5     1    29      15.8        2764.      15.8        2804.      15.8
##  6     2     5      14.4        2369.      14.4        2932.      14.4
##  7     2    12      14.6        2931.      14.6        2706.      14.6
##  8     2    19      15.1        2317.      15.1        2948.      15.1
##  9     2    26      13.3        2479.      13.3        2683.      13.3
## 10     3     4      14.1        2967.      14.1        3017.      14.1
## # ... with 43 more rows, and 3 more variables: quantity...8 <dbl>,
## #   price...9 <dbl>, quantity...10 <dbl>
…
And let’s verify that this works.

new_name(c("price...3", "quantity...4", "price...5", "quantity...6"))

## [1] "price_Noblesville"    "quantity_Noblesville" "price_Bloomington"   
## [4] "quantity_Bloomington"

Okay. Now we’re ready to read the spreadsheet and rename the columns.

data_2016 <- read_excel(file_name, sheet = "2016", skip = 1) %>%
  rename_at(vars(contains("...")), new_name)

data_2016

## # A tibble: 53 x 10
##    month   day price_Noblesvil~ quantity_Nobles~ price_Bloomingt~
##    <dbl> <dbl>            <dbl>            <dbl>            <dbl>
##  1     1     1             18.5            2764.             18.5
##  2     1     8             11.5            2751.             11.5
##  3     1    15             14.8            2612.             14.8
##  4     1    22             13.7            2723.             13.7
##  5     1    29             15.8            2764.             15.8
##  6     2     5             14.4            2369.             14.4
##  7     2    12             14.6            2931.             14.6
##  8     2    19             15.1            2317.             15.1
##  9     2    26             13.3            2479.             13.3
## 10     3     4             14.1            2967.             14.1
## # ... with 43 more rows, and 5 more variables: quantity_Bloomington <dbl>,
## #   price_Muncie <dbl>, quantity_Muncie <dbl>, `price_South Bend` <dbl>,
## #   `quantity_South Bend` <dbl>

The trickiest part of tidying this data

Finally, let’s extract location, price, and quantity variables. This is the trickiest part of tidying this data because it involves gathering multiple variables and then spreading them again. We also add the year and order the variables.

data_2016 %>%
  gather(-month, -day, key = "label", value = "value") %>%
  separate(label, into = c("type", "location"), sep = "_") %>%
  spread(key = "type", value = "value") %>%
  filter(!is.na(price) | !is.na(quantity)) %>%
  mutate(year = 2016) %>%
  select(year, month, day, location, price, quantity)

## # A tibble: 194 x 6
##     year month   day location    price quantity
##    <dbl> <dbl> <dbl> <chr>       <dbl>    <dbl>
##  1  2016     1     1 Bloomington  18.5    2631.
##  2  2016     1     1 Muncie       18.5    2928.
##  3  2016     1     1 Noblesville  18.5    2764.
##  4  2016     1     8 Bloomington  11.5    2788.
##  5  2016     1     8 Muncie       11.5    3162.
##  6  2016     1     8 Noblesville  11.5    2751.
##  7  2016     1    15 Bloomington  14.8    2989.
##  8  2016     1    15 Muncie       14.8    2986.
##  9  2016     1    15 Noblesville  14.8    2612.
## 10  2016     1    22 Bloomington  13.7    2827.
## # ... with 184 more rows
…
Now we can move price and quantity into their own variables using tidyr::spread.

step3 <- step2 %>%
  spread(key = "type", value = "value")
step3

## # A tibble: 212 x 5
##    month   day location    price quantity
##    <dbl> <dbl> <chr>       <dbl>    <dbl>
##  1     1     1 Bloomington  18.5    2631.
##  2     1     1 Muncie       18.5    2928.
##  3     1     1 Noblesville  18.5    2764.
##  4     1     1 South Bend   NA        NA 
##  5     1     8 Bloomington  11.5    2788.
##  6     1     8 Muncie       11.5    3162.
##  7     1     8 Noblesville  11.5    2751.
##  8     1     8 South Bend   NA        NA 
##  9     1    15 Bloomington  14.8    2989.
## 10     1    15 Muncie       14.8    2986.
## # ... with 202 more rows

Finally, we filter out NA values, add the year, and reorder the variables.

step3 %>%
  filter(!is.na(price) | !is.na(quantity)) %>%
  mutate(year = 2016) %>%
  select(year, month, day, location, price, quantity)

## # A tibble: 194 x 6
##     year month   day location    price quantity
##    <dbl> <dbl> <dbl> <chr>       <dbl>    <dbl>
##  1  2016     1     1 Bloomington  18.5    2631.
##  2  2016     1     1 Muncie       18.5    2928.
##  3  2016     1     1 Noblesville  18.5    2764.
##  4  2016     1     8 Bloomington  11.5    2788.
##  5  2016     1     8 Muncie       11.5    3162.
##  6  2016     1     8 Noblesville  11.5    2751.
##  7  2016     1    15 Bloomington  14.8    2989.
##  8  2016     1    15 Muncie       14.8    2986.
##  9  2016     1    15 Noblesville  14.8    2612.
## 10  2016     1    22 Bloomington  13.7    2827.
## # ... with 184 more rows
…
  df <- df %>%
    filter(!is.na(price) | !is.na(quantity)) %>%
    mutate(year = as.integer(sheet)) %>%
    select(year, month, day, location, price, quantity)

  df
}

read_sheet(file_name, "2016")

## # A tibble: 194 x 6
##     year month   day location    price quantity
##    <int> <dbl> <dbl> <chr>       <dbl>    <dbl>
##  1  2016     1     1 Bloomington  18.5    2631.
##  2  2016     1     1 Muncie       18.5    2928.
##  3  2016     1     1 Noblesville  18.5    2764.
##  4  2016     1     8 Bloomington  11.5    2788.
##  5  2016     1     8 Muncie       11.5    3162.
##  6  2016     1     8 Noblesville  11.5    2751.
##  7  2016     1    15 Bloomington  14.8    2989.
##  8  2016     1    15 Muncie       14.8    2986.
##  9  2016     1    15 Noblesville  14.8    2612.
## 10  2016     1    22 Bloomington  13.7    2827.
## # ... with 184 more rows
…
